Clean Data
…
Do any Scer/Spar samples have many incorrect gene mappings?

sampdf <- plotdf |> filter(organism %in% c("cerSample", "parSample")) |> 
  group_by(sample_name, organism) |> 
  summarise(avg_pct_cer = mean(pct_cer, na.rm = TRUE))

## `summarise()` has grouped output by 'sample_name'. You can override
## using the `.groups` argument.

sampdf |> filter(organism == "cerSample") |> arrange(avg_pct_cer)

## # A tibble: 220 × 3
## # Groups:   sample_name [220]
##    sample_name              organism  avg_pct_cer
##    <chr>                    <chr>           <dbl>
##  1 WT_39_cer_CellCycle_rep2 cerSample       0.522
##  2 WT_28_cer_CellCycle_rep2 cerSample       0.680
##  3 WT_12_cer_CellCycle_rep1 cerSample       0.824
##  4 WT_11_cer_HAP4andWTonYPD cerSample       0.882
##  5 WT_13_cer_HAP4andWTonYPD cerSample       0.884
##  6 WT_15_cer_HAP4andWTonYPD cerSample       0.887
##  7 WT_TP1_cer_C3_D3_G6_GS7  cerSample       0.897
##  8 WT_TP1_cer_C3_F5_G12_GS7 cerSample       0.901
##  9 WT_9_cer_HAP4andWTonYPD  cerSample       0.908
## 10 WT_41_cer_CellCycle_rep1 cerSample       0.908
## # ℹ 210 more rows

sampdf |> filter(organism == "parSample") |> arrange(desc(avg_pct_cer))

## # A tibble: 230 × 3
## # Groups:   sample_name [230]
##    sample_name                    organism  avg_pct_cer
##    <chr>                          <chr>           <dbl>
##  1 WT_34_par_CellCycle_rep2       parSample      0.312 
##  2 WT_15_par_HAP4andWTonYPD       parSample      0.164 
##  3 WT_TP1_par_remnants2_D5_G6_GS7 parSample      0.124 
##  4 WT_29_par_SCtoLowPi_rep1       parSample      0.118 
##  5 WT_4_par_SCtoLowPi_rep1        parSample      0.116 
##  6 WT_17_par_SCtoLowPi_rep2       parSample      0.110 
##  7 WT_8_par_SCtoLowPi_rep1        parSample      0.105 
##  8 WT_16_par_SCtoLowPi_rep1       parSample      0.101 
##  9 WT_6_par_HAP4andWTonYPD        parSample      0.0967
## 10 WT_1_par_HAP4andWTonYPD        parSample      0.0946
## # ℹ 220 more rows
…
sample_info |> filter(experiment == "LowN") |> group_by(organism,
                                                        well_flask_ID,
                                                        genotype) |> 
  summarise(nreps = n()) |> filter(nreps != 3)

## `summarise()` has grouped output by 'organism', 'well_flask_ID'. You
## can override using the `.groups` argument.

## # A tibble: 195 × 4
## # Groups:   organism, well_flask_ID [195]
##    organism well_flask_ID genotype nreps
##    <chr>    <chr>         <chr>    <int>
##  1 cer      A1_G6_GS2018  WT           2
##  2 cer      A3_G6_GS7     WT           1
##  3 cer      A3_G6_GS8     WT           2
##  4 cer      A6_G12_GS7    WT           1
##  5 cer      A6_G12_GS8    WT           2
##  6 cer      A7_G6_GS2018  WT           1
##  7 cer      B1_G6_GS2018  WT           2
##  8 cer      B3_G6_GS7     WT           1
##  9 cer      B3_G6_GS8     WT           2
## 10 cer      B7_G6_GS2018  WT           1
## # ℹ 185 more rows
…
