Exploring plasticity divergence with yestract-defined regulons
…
  }) |> purrr::reduce(.f = bind_rows)
  return(outdf)
}) |> purrr::reduce(.f = bind_rows) |> 
  # adding regulator descriptions
  left_join(dplyr::select(yeastract_lookup, systematic, common, description),
                     by = c("target"="systematic")) |> 
  dplyr::rename(c("target_description"="description",
           "target_common"="common")) |> 
  left_join(dplyr::select(yeastract_lookup, systematic, common, description),
            by = c("regulator"="systematic")) |>
  dplyr::rename(c("regulator_description"="description",
           "regulator_common"="common"))
regdf

## # A tibble: 15,897 × 7
##    regulator target  environment target_common target_description      
##    <chr>     <chr>   <chr>       <chr>         <chr>                   
##  1 YAL051W   YAR071W YPD         PHO11         One of three repressibl…
##  2 YAL051W   YBR126C YPD         TPS1          Synthase subunit of tre…
##  3 YAL051W   YBR135W YPD         CKS1          Cyclin-dependent protei…
##  4 YAL051W   YDL070W YPD         BDF2          Protein involved in tra…
##  5 YAL051W   YDR072C YPD         IPT1          Inositolphosphotransfer…
##  6 YAL051W   YDR077W YPD         SED1          Major stress-induced st…
##  7 YAL051W   YDR207C YPD         UME6          Rpd3L histone deacetyla…
##  8 YAL051W   YDR256C YPD         CTA1          Catalase A breaks down …
##  9 YAL051W   YEL011W YPD         GLC3          Glycogen branching enzy…
## 10 YAL051W   YEL060C YPD         PRB1          Vacuolar proteinase B (…
## # ℹ 15,887 more rows
## # ℹ 2 more variables: regulator_common <chr>,
## #   regulator_description <chr>
…
